<?xml version="1.0" encoding="utf-8" ?>
<kml xmlns="http://www.opengis.net/kml/2.2">
<Document><Folder><name>LGA11aAust</name>
<Schema name="LGA11aAust" id="LGA11aAust">
	<SimpleField name="Name" type="string"></SimpleField>
	<SimpleField name="Description" type="string"></SimpleField>
	<SimpleField name="STATE_CODE" type="string"></SimpleField>
	<SimpleField name="LGA_CODE11" type="string"></SimpleField>
	<SimpleField name="LGA_NAME11" type="string"></SimpleField>
</Schema>